﻿
{
  "contextSettings": {
    "connectionString": "server=urlshortener.db;database=urlshortener;uid=root;password=fastdb",
    "outputDirectory": "\\",
    "className": "DbContext",
    "nameSpace": "DomainModel",
    "databaseName":  "urlshortener"
  },
  "referenceDataSettings": {
    "outputDirectory": "\\Scripts\\ReferenceData\\",
    "referenceDataSchemaName" :  "referencedata"
  }
}